{
  "name": "CXHAdSDK-Adapter",
  "version": "1.4.8",
  "summary": "A short description of CXHAdSDK-Adapter.",
  "description": "TODO: Add long description of the pod here.",
  "homepage": "https://gitee.com/huazi-rongchuang/cxhadsdk-adapter",
  "license": {
    "type": "MIT",
    "file": "LICENSE"
  },
  "authors": {
    "csscsg": "1621454839@qq.com"
  },
  "source": {
    "git": "https://gitee.com/huazi-rongchuang/cxhadsdk-adapter.git",
    "tag": "1.4.8"
  },
  "platforms": {
    "ios": "9.0"
  },
  "requires_arc": true,
  "dependencies": {
    "CXHAdSDK-Kit": [
      "1.4.7"
    ]
  },
  "xcconfig": {
    "ARCHS": "${ARCHS_STANDARD_64_BIT}",
    "VALID_ARCHS": "${ARCHS_STANDARD_64_BIT}"
  },
  "ios": {
    "vendored_frameworks": [
      "CXHAdSDK-Adapter/Classes/CXHAdSDK-Adapter.framework"
    ]
  },
  "pod_target_xcconfig": {
    "OTHER_LDFLAGS": "-ObjC",
    "EXCLUDED_ARCHS[sdk=iphonesimulator*]": "arm64"
  }
}
