{
  "name": "TPNSDKIronSourceSDKAdapter",
  "version": "6.3.00.1",
  "summary": "AnyThinkIronSourceAdapter used for mediation with the TopOn SDK",
  "description": "TopOn SDK for developer",
  "homepage": "https://github.com/CocoaPods/Specs/search?o=desc&q=AnyThinkIronSourceAdapter&s=indexed",
  "authors": {
    "topon": "mct-js@toponad.com"
  },
  "license": {
    "type": "MIT",
    "file": "AnyThinkIronSourceAdapter-6.3.00.1/LICENSE"
  },
  "platforms": {
    "ios": "11.0"
  },
  "static_framework": true,
  "requires_arc": true,
  "pod_target_xcconfig": {
    "OTHER_LDFLAGS": [
      "-lObjC"
    ],
    "VALID_ARCHS": "x86_64 armv7 armv7s arm64"
  },
  "source": {
    "http": "https://topon-sdk-release.oss-cn-hangzhou.aliyuncs.com/TPN_SDK_Release/v6.3.00/iOS/AnyThink_mediation/AnyThinkIronSourceAdapter-6.3.00.1.zip",
    "type": "zip"
  },
  "vendored_frameworks": "AnyThinkIronSourceAdapter-6.3.00.1/AnyThinkIronSourceAdapter.framework",
  "dependencies": {
    "TPNSDKiOS": [
      "6.3.00"
    ],
    "IronSourceSDK": [
      "7.7.0"
    ]
  }
}
