{
  "name": "FaceSDKBeta",
  "version": "5.2.1562",
  "summary": "Framework for face matching, face recognition, and liveness detection",
  "license": {
    "type": "commercial",
    "text": "    © 2023 RegulaForensics. All rights reserved.\n"
  },
  "homepage": "https://mobile.regulaforensics.com",
  "authors": {
    "RegulaForensics": "support@regulaforensics.com"
  },
  "source": {
    "http": "https://pods.regulaforensics.com/FaceSDKBeta/5.2.1562/FaceSDKBeta-5.2.1562.zip"
  },
  "platforms": {
    "ios": "11.0.0"
  },
  "ios": {
    "vendored_frameworks": "FaceSDK.xcframework"
  },
  "dependencies": {
    "RegulaCommon": [
      "6.8.324"
    ]
  }
}
