{
  "name": "TrustDecisionPro",
  "version": "4.2.6.4",
  "summary": "Pro version of TrustDecision",
  "homepage": "https://trustdecision.com",
  "license": {
    "type": "Copyright",
    "text": "Copyright © 2013-2022 TrustDecision. All Rights Reserved."
  },
  "authors": {
    "trustdecision": "trustdevice@trustdecision.com"
  },
  "source": {
    "http": "https://portal-static.tongdun.cn/static-public/antifraudinfo/fp-ios_oc-download-ollvm/4.2.6/TDMobRisk_v4.2.6.4_68e5022.zip"
  },
  "platforms": {
    "ios": "9.0"
  },
  "vendored_frameworks": "*.framework",
  "libraries": "resolv.9",
  "pod_target_xcconfig": {
    "EXCLUDED_ARCHS[sdk=iphonesimulator*]": "arm64"
  },
  "user_target_xcconfig": {
    "EXCLUDED_ARCHS[sdk=iphonesimulator*]": "arm64"
  },
  "xcconfig": {
    "FRAMEWORK_SEARCH_PATHS": "\"$(PODS_ROOT)/TrustDecisionPro\"",
    "LIBRARY_SEARCH_PATHS": "\"$(PODS_ROOT)/TrustDecisionPro\""
  },
  "subspecs": [
    {
      "name": "TDMobRisk",
      "source_files": [
        "TDMobRisk.framework/**/*",
        "TDMobRisk.framework/Headers/*.h"
      ],
      "exclude_files": "TDMobRisk.framework/Info.plist",
      "xcconfig": {
        "OTHER_LDFLAGS": "$(inherited) -framework \"TDMobRisk\""
      }
    },
    {
      "name": "FMDeviceManagerFramework",
      "source_files": "*.a",
      "xcconfig": {
        "OTHER_LDFLAGS": "$(inherited)  \"$(PODS_ROOT)/TrustDecisionPro/FMDeviceManagerFramework.a\""
      }
    },
    {
      "name": "TDCorePlugin",
      "vendored_frameworks": "TDCorePlugin.framework",
      "xcconfig": {
        "OTHER_LDFLAGS": "$(inherited) -framework \"TDCorePlugin\""
      }
    }
  ]
}
