{
  "name": "CAMapSDKAMap",
  "version": "1.0.7",
  "license": {
    "type": "MIT",
    "file": "LICENSE"
  },
  "summary": "地图融合SDK",
  "description": "封装常见地图SDK",
  "homepage": "https://github.com/datoujiejie/CAMAPSDK",
  "authors": "datoujiejie",
  "source": {
    "git": "git@github.com:datoujiejie/CAMAPSDK.git",
    "tag": "main"
  },
  "user_target_xcconfig": {
    "ENABLE_BITCODE": "NO"
  },
  "pod_target_xcconfig": {
    "ENABLE_BITCODE": "NO"
  },
  "platforms": {
    "ios": "12.0"
  },
  "requires_arc": true,
  "static_framework": true,
  "xcconfig": {
    "VALID_ARCHS": "x86_64 arm64"
  },
  "subspecs": [
    {
      "name": "AMAP",
      "dependencies": {
        "CAMapSDK": [

        ],
        "AMapSearch": [

        ],
        "AMap3DMap": [

        ],
        "AMapLocation": [

        ]
      },
      "source_files": "CAMapSDK/Adapter/AMap/**/*.{h,m}",
      "frameworks": [
        "UIKit",
        "MapKit",
        "WebKit",
        "MediaPlayer",
        "CoreLocation",
        "AdSupport",
        "CoreMedia",
        "AVFoundation",
        "CoreTelephony",
        "StoreKit",
        "SystemConfiguration",
        "MobileCoreServices",
        "CoreMotion",
        "Accelerate",
        "AudioToolbox",
        "JavaScriptCore",
        "Security",
        "CoreImage",
        "AudioToolbox",
        "ImageIO",
        "QuartzCore",
        "CoreGraphics",
        "CoreText",
        "GLKit"
      ],
      "libraries": [
        "c++",
        "z"
      ]
    }
  ]
}
