{
  "name": "NestAdsSdk",
  "version": "0.1.2",
  "summary": "NestAdsSdkNestAdsSdkNestAdsSdkNestAdsSdkNestAdsSdkNestAdsSdkNestAdsSdkNestAdsSdk",
  "description": "'NestAdsSdkNestAdsSdkNestAdsSdkNestAdsSdkNestAdsSdkNestAdsSdkNestAdsSdkNestAdsSdkNestAdsSdkNestAdsSdkNestAdsSdkNestAdsSdkNestAdsSdkNestAdsSdkNestAdsSdkNestAdsSdk'",
  "homepage": "https://github.com/1993hpotter/NestAdsSdk",
  "license": {
    "type": "MIT",
    "file": "LICENSE"
  },
  "authors": {
    "박현덕": "hpotter1993@adwitt.com"
  },
  "source": {
    "http": "https://github.com/1993hpotter/NestAdsSdk/raw/main/NestAdsSdk.framework.zip"
  },
  "platforms": {
    "ios": "12.0"
  },
  "swift_versions": "5.0",
  "vendored_frameworks": "NestAdsSdk.framework",
  "swift_version": "5.0"
}
