{
  "name": "RegulaCommonBeta",
  "version": "6.8.355",
  "summary": "Collection of shared code and modules for Regula solutions.",
  "license": {
    "type": "commercial",
    "text": "    © 2024 RegulaForensics. All rights reserved.\n"
  },
  "homepage": "https://mobile.regulaforensics.com",
  "authors": {
    "RegulaForensics": "support@regulaforensics.com"
  },
  "source": {
    "http": "https://pods.regulaforensics.com/RegulaCommonBeta/6.8.355/RegulaCommonBeta-6.8.355.zip"
  },
  "platforms": {
    "ios": "11.0.0"
  },
  "ios": {
    "vendored_frameworks": "RegulaCommon.xcframework"
  }
}
